<!-- Generated by IcoMoon.io -->
<svg version="1.1" xmlns="http://www.w3.org/2000/svg" width="1024" height="1024" viewBox="0 0 1024 1024">
<title></title>
<g id="icomoon-ignore">
</g>
<path d="M971.707 181.764c-14.651-13.897-32.034-20.847-52.104-20.847h-74.1v-52.665c0-24.132-9.079-44.797-27.218-61.985-18.149-17.189-39.947-25.787-65.429-25.787h-37.045c-25.48 0-47.286 8.598-65.427 25.789-18.147 17.187-27.218 37.853-27.218 61.985v52.665h-222.314v-52.665c0-24.132-9.075-44.797-27.218-61.985-18.139-17.19-39.947-25.789-65.427-25.789h-37.051c-25.474 0-47.284 8.598-65.427 25.789-18.139 17.187-27.216 37.853-27.216 61.985v52.665h-74.102c-20.076 0-37.442 6.95-52.11 20.847-14.667 13.895-22.002 30.358-22.002 49.373v702.17c0 19.002 7.335 35.461 22.002 49.366 14.665 13.893 32.032 20.845 52.11 20.845h815.176c20.070 0 37.455-6.95 52.104-20.845 14.67-13.899 22.006-30.365 22.006-49.366v-702.172c-0.002-19.022-7.331-35.476-21.992-49.373zM697.285 108.26c0-5.124 1.722-9.334 5.191-12.618 3.47-3.287 7.911-4.934 13.323-4.934h37.045c5.414 0 9.841 1.641 13.323 4.934 3.472 3.289 5.206 7.499 5.206 12.618v157.983c0 5.122-1.734 9.324-5.206 12.618-3.484 3.284-7.909 4.934-13.323 4.934h-37.045c-5.412 0-9.853-1.643-13.323-4.934-3.47-3.295-5.191-7.495-5.191-12.618v-157.983zM252.633 108.26c0-5.124 1.734-9.334 5.208-12.618 3.476-3.287 7.911-4.934 13.317-4.934h37.051c5.408 0 9.851 1.641 13.317 4.934 3.47 3.289 5.212 7.499 5.212 12.618v157.983c0 5.122-1.734 9.33-5.212 12.618-3.474 3.284-7.909 4.934-13.317 4.934h-37.051c-5.406 0-9.847-1.643-13.317-4.934-3.466-3.295-5.208-7.495-5.208-12.618v-157.983zM872.53 865.902h-721.057v-454.113h721.057v454.113z"></path>
</svg>
