<!-- Generated by IcoMoon.io -->
<svg version="1.1" xmlns="http://www.w3.org/2000/svg" width="1024" height="1024" viewBox="0 0 1024 1024">
<title></title>
<g id="icomoon-ignore">
</g>
<path fill="#3388fd" d="M0 848v-671.999c0-35.327 28.673-63.999 63.999-63.999h896.002c35.36 0 63.999 28.673 63.999 63.999v671.999c0 35.327-28.639 63.999-63.999 63.999h-896.002c-35.327 0-63.999-28.673-63.999-63.999z"></path>
<path fill="#fff" opacity="0.4" d="M95.302 812.794h768.699v-601.59h-768.699v601.59zM896.002 511.998c0 26.497 21.504 48 48 48s48-21.504 48-48c0-26.497-21.504-48-48-48s-48 21.504-48 48z"></path>
</svg>
