<?xml version="1.0" encoding="UTF-8"?>
<svg width="20px" height="15px" viewBox="0 0 20 15" version="1.1" xmlns="http://www.w3.org/2000/svg" xmlns:xlink="http://www.w3.org/1999/xlink">
    <!-- Generator: sketchtool 53.2 (72643) - https://sketchapp.com -->
    <title>8F8E196B-644C-462C-9788-15117E2F4B14</title>
    <desc>Created with sketchtool.</desc>
    <g id="Icons" stroke="none" stroke-width="1" fill="none" fill-rule="evenodd">
        <g transform="translate(-754.000000, -280.000000)" id="ic/check-orange">
            <g transform="translate(752.000000, 275.000000)">
                <rect id="Rectangle" x="0" y="0" width="24" height="24"></rect>
                <path d="M18.9393398,5.93933983 C19.5251263,5.35355339 20.4748737,5.35355339 21.0606602,5.93933983 C21.6464466,6.52512627 21.6464466,7.47487373 21.0606602,8.06066017 L10.0606602,19.0606602 C9.47487373,19.6464466 8.52512627,19.6464466 7.93933983,19.0606602 L2.93933983,14.0606602 C2.35355339,13.4748737 2.35355339,12.5251263 2.93933983,11.9393398 C3.52512627,11.3535534 4.47487373,11.3535534 5.06066017,11.9393398 L9,15.8786797 L18.9393398,5.93933983 Z" id="Shape" fill="#000000" fill-rule="nonzero"></path>
            </g>
        </g>
    </g>
</svg>