<?xml version="1.0" encoding="UTF-8"?>
<svg width="18px" height="20px" viewBox="0 0 18 20" version="1.1" xmlns="http://www.w3.org/2000/svg" xmlns:xlink="http://www.w3.org/1999/xlink">
    <!-- Generator: sketchtool 53.2 (72643) - https://sketchapp.com -->
    <title>35CCC25E-1DCE-4EE7-ACC9-7B5A72C5596A@svg</title>
    <desc>Created with sketchtool.</desc>
    <g id="UI-Final" stroke="none" stroke-width="1" fill="none" fill-rule="evenodd" opacity="0.5">
        <g id="Kho-giao-diện/Đặt-mua---Full-HD-1920" transform="translate(-891.000000, -930.000000)">
            <g id="Đặt-hàng" transform="translate(376.000000, 320.000000)">
                <g id="ic/lock" transform="translate(508.000000, 604.000000)">
                    <g>
                        <rect id="Rectangle" x="0" y="0" width="32" height="32"></rect>
                        <path d="M10,16.1 C9.44771525,16.1 9,16.5477153 9,17.1 L9,23 C9,23.5522847 9.44771525,24 10,24 L22,24 C22.5522847,24 23,23.5522847 23,23 L23,17.1 C23,16.5477153 22.5522847,16.1 22,16.1 L10,16.1 Z M10,14.1 L22,14.1 C23.6568542,14.1 25,15.4431458 25,17.1 L25,23 C25,24.6568542 23.6568542,26 22,26 L10,26 C8.34314575,26 7,24.6568542 7,23 L7,17.1 C7,15.4431458 8.34314575,14.1 10,14.1 Z" id="Rectangle-path" fill="#000D37" fill-rule="nonzero"></path>
                        <path d="M12.5555556,15.1 C12.5555556,15.6522847 12.1078403,16.1 11.5555556,16.1 C11.0032708,16.1 10.5555556,15.6522847 10.5555556,15.1 L10.5555556,11.5 C10.5555556,8.4651955 12.9903165,6 16,6 C19.0096835,6 21.4444444,8.4651955 21.4444444,11.5 L21.4444444,15.1 C21.4444444,15.6522847 20.9967292,16.1 20.4444444,16.1 C19.8921597,16.1 19.4444444,15.6522847 19.4444444,15.1 L19.4444444,11.5 C19.4444444,9.56424175 17.8995143,8 16,8 C14.1004857,8 12.5555556,9.56424175 12.5555556,11.5 L12.5555556,15.1 Z" id="Shape" fill="#000D37" fill-rule="nonzero"></path>
                    </g>
                </g>
            </g>
        </g>
    </g>
</svg>