<?xml version="1.0" encoding="UTF-8"?>
<svg width="15px" height="24px" viewBox="0 0 15 24" version="1.1" xmlns="http://www.w3.org/2000/svg" xmlns:xlink="http://www.w3.org/1999/xlink">
    <!-- Generator: sketchtool 53.2 (72643) - https://sketchapp.com -->
    <title>AB919B19-3072-4C15-BD82-E282BB3D1D7E</title>
    <desc>Created with sketchtool.</desc>
    <g id="Icons" stroke="none" stroke-width="1" fill="none" fill-rule="evenodd">
        <g transform="translate(-643.000000, -173.000000)" id="ic/mobile">
            <g transform="translate(634.289643, 169.000000)">
                <g>
                    <rect id="Rectangle" x="0" y="0" width="32" height="32"></rect>
                    <path d="M10.386228,4 L21.613772,4 C22.4400912,4 23.1107622,4.67067101 23.1107622,5.49777199 L23.1107622,26.4559479 C23.1107622,27.2822671 22.4400912,27.9522345 21.613772,27.9522345 L10.386228,27.9522345 C9.55990879,27.9522345 8.88923779,27.2823453 8.88923779,26.4559479 L8.88923779,5.49777199 C8.88923779,4.67067101 9.55990879,4 10.386228,4 Z" id="Path" fill="#3388FD" fill-rule="nonzero"></path>
                    <path d="M10.386228,6.99476221 L10.386228,24.2096417 L21.613772,24.2096417 L21.613772,6.99476221 C21.613772,6.99476221 10.386228,6.99476221 10.386228,6.99476221 Z M16.0000391,24.9588795 C15.3802606,24.9588795 14.8772769,25.4611596 14.8772769,26.0808599 C14.8772769,26.701342 15.3802606,27.2044039 16.0000391,27.2044039 C16.6198176,27.2044039 17.1228013,26.7014202 17.1228013,26.0808599 C17.1228013,25.4611596 16.6198176,24.9588795 16.0000391,24.9588795 Z" id="Shape" fill-opacity="0.4" fill="#FFFFFF" fill-rule="nonzero"></path>
                </g>
            </g>
        </g>
    </g>
</svg>