<?xml version="1.0" encoding="UTF-8"?>
<svg width="192px" height="65px" viewBox="0 0 192 65" version="1.1" xmlns="http://www.w3.org/2000/svg" xmlns:xlink="http://www.w3.org/1999/xlink">
    <!-- Generator: sketchtool 53.2 (72643) - https://sketchapp.com -->
    <title>DD4EF693-8C1C-490B-9059-710A046287BB</title>
    <desc>Created with sketchtool.</desc>
    <defs>
        <polygon id="path-1" points="0.08843 0.08662 36.9 0.08662 36.9 9.08112 0.08843 9.08112"></polygon>
    </defs>
    <g id="Icons" stroke="none" stroke-width="1" fill="none" fill-rule="evenodd">
        <g transform="translate(-256.000000, -478.000000)" id="ic/Techcombank">
            <g transform="translate(256.000000, 478.000000)">
                <g>
                    <rect id="Rectangle" fill="#FFFFFF" x="0" y="0.7" width="192" height="64" rx="8"></rect>
                    <g id="Group-10" transform="translate(46.000000, 10.000000)">
                        <path d="M56.76957,4e-05 L49.99937,6.76964 L56.76957,13.53824 L49.99937,20.30564 L56.76957,27.03104 L70.26187,13.53824 L56.76957,4e-05 Z M43.27597,4e-05 L29.73857,13.53824 L43.27597,27.03104 L49.99937,20.30564 L43.27597,13.53824 L49.99937,6.76964 L43.27597,4e-05 Z" id="Fill-1" fill="#ED1C24"></path>
                        <g id="Group-9" transform="translate(0.000000, 24.784800)">
                            <path d="M45.19741,20.5 L45.19741,18.4474 C45.89581,18.4474 46.41881,18.1851 46.90001,17.7052 C47.33601,17.1805 47.55451,16.5694 47.55451,15.7841 C47.55451,15.0419 47.33601,14.4312 46.90001,13.9062 C46.41881,13.3831 45.85191,13.1625 45.19741,13.1625 L45.19741,11.0678 C45.85191,11.0678 46.46261,11.199 47.03121,11.4161 C47.64221,11.6788 48.16561,12.0285 48.60261,12.4642 C49.08241,12.9019 49.38861,13.3831 49.65101,13.9938 C49.86951,14.561 49.99931,15.1292 49.99931,15.7841 C49.99931,16.4386 49.86951,17.0493 49.65101,17.6179 C49.43211,18.1851 49.08241,18.7101 48.60261,19.1454 C48.16561,19.5831 47.64221,19.9331 47.03121,20.15 C46.46261,20.4127 45.85191,20.5 45.19741,20.5 L45.19741,20.5 Z M61.87801,20.2812 L59.60651,20.2812 L59.03931,16.3947 C59.03931,16.1324 58.99551,15.7841 58.95201,15.4778 C58.90781,15.1292 58.90781,14.7795 58.86431,14.3856 C58.82051,14.7356 58.69101,15.2151 58.51601,15.7841 C58.51601,15.9152 58.47241,16.0025 58.47241,16.0464 L57.24911,20.2812 L55.59031,20.2812 L54.36731,16.0464 C54.36731,16.0025 54.32341,15.9152 54.27961,15.7841 C54.10461,15.2151 54.01721,14.7356 53.97471,14.3856 C53.93121,14.7356 53.88571,15.0419 53.88571,15.3905 C53.84221,15.7402 53.80011,16.0464 53.75621,16.3947 L53.23151,20.2812 L50.96001,20.2812 L52.31421,11.2866 L54.76081,11.2866 L56.11341,15.9152 C56.11341,15.9588 56.15721,16.0025 56.15721,16.0886 C56.28871,16.4821 56.37611,16.8321 56.41991,17.1383 C56.41991,16.9633 56.46341,16.7883 56.50721,16.6136 C56.54901,16.3947 56.59491,16.1776 56.68221,15.9152 L58.07861,11.2866 L60.47961,11.2866 L61.87801,20.2812 Z M2.00881,20.2812 L2.00881,13.3831 L1e-05,13.3831 L1e-05,11.2866 L6.46231,11.2866 L6.46231,13.3831 L4.45361,13.3831 L4.45361,20.2812 L2.00881,20.2812 Z M45.19741,11.0678 L45.19741,13.1625 C44.49911,13.1625 43.97401,13.3831 43.49311,13.9062 C43.05711,14.3856 42.83831,15.0419 42.83831,15.7841 C42.83831,16.5694 43.05711,17.1805 43.49311,17.7052 C43.93051,18.1851 44.49911,18.4474 45.19741,18.4474 L45.19741,20.5 C44.54121,20.5 43.93051,20.4127 43.36161,20.15 C42.75091,19.9331 42.22761,19.5831 41.79021,19.1454 C41.31071,18.7101 40.96101,18.1851 40.74211,17.6179 C40.48111,17.0493 40.39381,16.4386 40.39381,15.7841 C40.39381,15.1292 40.48111,14.561 40.74211,13.9938 C40.96101,13.4253 41.31071,12.9019 41.79021,12.4642 C42.22761,12.0285 42.75091,11.6788 43.36161,11.4161 C43.93051,11.199 44.54121,11.0678 45.19741,11.0678 L45.19741,11.0678 Z M7.68581,20.2812 L7.68581,11.2866 L13.18911,11.2866 L13.18911,13.2502 L10.08841,13.2502 L10.08841,14.8233 L13.01271,14.8233 L13.01271,16.7448 L10.08841,16.7448 L10.08841,18.2724 L13.18911,18.2724 L13.18911,20.2812 L7.68581,20.2812 Z M21.35471,11.6363 L21.35471,14.2982 C21.00431,13.95 20.69811,13.6437 20.35021,13.4704 C19.99841,13.2954 19.65011,13.2081 19.25791,13.2081 C18.55991,13.2081 17.99101,13.4704 17.55361,13.95 C17.11801,14.4312 16.89911,15.0419 16.89911,15.8275 C16.89911,16.5694 17.11801,17.1383 17.55361,17.6179 C18.03491,18.099 18.60201,18.3601 19.25791,18.3601 C19.65011,18.3601 19.99841,18.2724 20.35021,18.099 C20.69811,17.9224 21.00431,17.6179 21.35471,17.2682 L21.35471,19.9331 C20.96081,20.15 20.56701,20.2812 20.17481,20.3688 C19.78301,20.4562 19.43291,20.5 19.03941,20.5 C18.51431,20.5 18.07871,20.4562 17.64131,20.325 C17.24921,20.2376 16.85531,20.0205 16.50561,19.802 C15.85241,19.3643 15.32771,18.7974 14.97801,18.099 C14.62931,17.3989 14.45471,16.6571 14.45471,15.7841 C14.45471,15.084 14.54201,14.4733 14.76091,13.9062 C14.97801,13.3376 15.32771,12.8143 15.80721,12.3769 C16.20111,11.9412 16.68061,11.5911 17.24921,11.374 C17.77251,11.1555 18.33931,11.0678 19.03941,11.0678 C19.43291,11.0678 19.78301,11.1116 20.17481,11.199 C20.56701,11.2866 20.96081,11.4161 21.35471,11.6363 L21.35471,11.6363 Z M22.75081,20.2812 L22.75081,11.2866 L25.19731,11.2866 L25.19731,14.7795 L28.47161,14.7795 L28.47161,11.2866 L30.91641,11.2866 L30.91641,20.2812 L28.47161,20.2812 L28.47161,16.6136 L25.19731,16.6136 L25.19731,20.2812 L22.75081,20.2812 Z M39.38921,11.6363 L39.38921,14.2982 C39.03921,13.95 38.68951,13.6437 38.38471,13.4704 C38.03501,13.2954 37.68491,13.2081 37.29111,13.2081 C36.59481,13.2081 36.02591,13.4704 35.59021,13.95 C35.15281,14.4312 34.93401,15.0419 34.93401,15.8275 C34.93401,16.5694 35.15281,17.1383 35.59021,17.6179 C36.02591,18.099 36.59481,18.3601 37.29111,18.3601 C37.68491,18.3601 38.03501,18.2724 38.38471,18.099 C38.68951,17.9224 39.03921,17.6179 39.38921,17.2682 L39.38921,19.9331 C38.99571,20.15 38.60181,20.2812 38.21001,20.3688 C37.81611,20.4562 37.42431,20.5 37.03041,20.5 C36.55091,20.5 36.11351,20.4562 35.67791,20.325 C35.28401,20.2376 34.89011,20.0205 34.54211,19.802 C33.84201,19.3643 33.36251,18.7974 32.96901,18.099 C32.62071,17.3989 32.44561,16.6571 32.44561,15.7841 C32.44561,15.084 32.57681,14.4733 32.79401,13.9062 C33.01251,13.3376 33.36251,12.8143 33.79821,12.3769 C34.23591,11.9412 34.71511,11.5911 35.24021,11.374 C35.80911,11.1555 36.37591,11.0678 37.03041,11.0678 C37.42431,11.0678 37.81611,11.1116 38.21001,11.199 C38.60181,11.2866 38.99571,11.4161 39.38921,11.6363 L39.38921,11.6363 Z" id="Fill-2" fill="#ED1C24"></path>
                            <g id="Group-6" transform="translate(63.100000, 11.200000)">
                                <mask id="mask-2" fill="white">
                                    <use xlink:href="#path-1"></use>
                                </mask>
                                <g id="Clip-5"></g>
                                <path d="M12.22773,7.46622 L12.22773,5.71942 L13.45083,5.71942 L12.53403,2.75002 C12.49043,2.66262 12.44663,2.53142 12.40103,2.31262 C12.35893,2.13762 12.27153,1.87662 12.22773,1.57042 L12.22773,0.08662 L13.75703,0.08662 L16.85813,9.08112 L14.41163,9.08112 L13.93243,7.46622 L12.22773,7.46622 Z M17.72983,9.08112 L17.72983,0.08662 L20.08853,0.08662 L23.49403,4.71522 C23.53763,4.80252 23.66873,5.01972 23.79993,5.28212 C23.97503,5.58832 24.14823,5.89282 24.32363,6.28662 C24.28113,5.93832 24.23773,5.58832 24.19383,5.32602 C24.19383,5.01972 24.14823,4.75882 24.14823,4.54022 L24.14823,0.08662 L26.50713,0.08662 L26.50713,9.08112 L24.14823,9.08112 L20.74303,4.45252 C20.69923,4.36522 20.56943,4.14642 20.43693,3.88402 C20.26153,3.57952 20.13203,3.23112 19.95703,2.88112 C20.00123,3.23112 20.04473,3.57952 20.04473,3.88402 C20.08853,4.14642 20.08853,4.40912 20.08853,4.62752 L20.08853,9.08112 L17.72983,9.08112 Z M28.47233,9.08112 L28.47233,0.08662 L30.87503,0.08662 L30.87503,4.19052 L33.75543,0.08662 L36.59373,0.08662 L33.27593,4.49642 L36.90003,9.08112 L33.84453,9.08112 L30.87503,5.06492 L30.87503,9.08112 L28.47233,9.08112 Z M3.36413,3.66682 C3.66863,3.62332 3.93133,3.57952 4.06253,3.49182 C4.27973,3.36102 4.41083,3.09822 4.41083,2.79382 C4.41083,2.44372 4.32343,2.22532 4.10463,2.05022 C3.93133,1.96252 3.71283,1.92082 3.36413,1.87662 L3.36413,0.08662 C3.93133,0.08662 4.36703,0.12842 4.67313,0.17402 C5.06713,0.25992 5.41543,0.34732 5.72133,0.52242 C6.02603,0.69742 6.28833,0.95972 6.46343,1.26412 C6.63843,1.57042 6.72573,1.92082 6.72573,2.31262 C6.72573,2.83762 6.59493,3.27332 6.33223,3.53562 C6.07153,3.84192 5.63393,4.10422 5.06713,4.23372 C5.72133,4.27782 6.24633,4.49642 6.59493,4.93242 C6.94463,5.32602 7.11793,5.84932 7.11793,6.50522 C7.11793,6.98502 7.03203,7.42242 6.81183,7.77252 C6.63843,8.16422 6.33223,8.42692 5.94013,8.64552 C5.63393,8.82052 5.28593,8.90642 4.80443,8.99552 C4.49993,9.03762 4.01903,9.08112 3.36413,9.08112 L3.36413,7.24742 C3.84393,7.24742 4.19363,7.16002 4.41083,7.02852 C4.67313,6.89902 4.80443,6.63672 4.80443,6.28662 C4.80443,5.93832 4.67313,5.67602 4.45433,5.50102 C4.23583,5.36942 3.88753,5.28212 3.36413,5.28212 L3.36413,3.66682 Z M12.22773,0.08662 L12.22773,1.57042 L12.22773,1.52682 C12.14043,1.74542 12.09653,1.96252 12.05273,2.18312 C12.01063,2.35642 11.96543,2.57492 11.87953,2.75002 L11.00473,5.71942 L12.22773,5.71942 L12.22773,7.46622 L10.48133,7.46622 L10.00013,9.08112 L7.55533,9.08112 L10.65473,0.08662 L12.22773,0.08662 Z M2.35823,3.66682 L2.88333,3.66682 L3.36413,3.66682 L3.36413,5.28212 L3.23333,5.28212 L2.35823,5.28212 L2.35823,7.24742 L3.18943,7.24742 L3.36413,7.24742 L3.36413,9.08112 L2.62053,9.08112 L0.08843,9.08112 L0.08843,0.08662 L2.57703,0.08662 L3.36413,0.08662 L3.36413,1.87662 L2.88333,1.87662 L2.35823,1.87662 L2.35823,3.66682 L2.35823,3.66682 Z" id="Fill-4" fill="#231F20" mask="url(#mask-2)"></path>
                            </g>
                            <path d="M69.12607,1.06705 C69.21337,1.06705 69.25727,1.02325 69.30107,1.02325 C69.34627,0.97965 69.38837,0.89375 69.38837,0.80605 C69.38837,0.71875 69.34627,0.63145 69.30107,0.58755 C69.25727,0.58755 69.21337,0.54375 69.12607,0.54375 L69.12607,0.41255 C69.25727,0.41255 69.34627,0.45635 69.38837,0.49985 C69.47607,0.58755 69.51967,0.67485 69.51967,0.80605 C69.51967,0.93585 69.47607,1.02325 69.38837,1.06705 C69.34627,1.15475 69.25727,1.19825 69.12607,1.19825 L69.12607,1.06705 Z M69.12607,2.24625 C69.73847,2.24625 70.26177,1.76545 70.26177,1.11055 C70.26177,0.49985 69.73847,0.01905 69.12607,0.01905 L69.12607,0.10635 C69.69487,0.10635 70.17407,0.54375 70.17407,1.11055 C70.17407,1.72295 69.69487,2.15895 69.12607,2.15895 L69.12607,2.24625 Z M69.12607,1.37325 L69.12607,1.19825 L69.65077,1.89655 L69.47607,1.89655 L69.12607,1.37325 Z M68.90887,0.54375 L68.90887,1.06705 L69.04017,1.06705 L69.12607,1.06705 L69.12607,1.37325 L68.99657,1.19825 L68.90887,1.19825 L68.90887,1.89655 L68.77777,1.89655 L68.77777,0.41255 L69.04017,0.41255 L69.12607,0.41255 L69.12607,0.54375 L69.04017,0.54375 L68.90887,0.54375 Z M69.12607,0.01905 C68.51547,0.01905 67.99197,0.49985 67.99197,1.11055 C67.99197,1.76545 68.51547,2.24625 69.12607,2.24625 L69.12607,2.15895 C68.55917,2.15895 68.07767,1.72295 68.07767,1.11055 C68.07767,0.54375 68.55917,0.10635 69.12607,0.10635 L69.12607,0.01905 L69.12607,0.01905 Z" id="Fill-7" fill="#ED1C24"></path>
                        </g>
                    </g>
                </g>
            </g>
        </g>
    </g>
</svg>