<?xml version="1.0" standalone="no"?>
<!DOCTYPE svg PUBLIC "-//W3C//DTD SVG 1.1//EN" "http://www.w3.org/Graphics/SVG/1.1/DTD/svg11.dtd" >
<svg xmlns="http://www.w3.org/2000/svg">
<metadata>Generated by IcoMoon</metadata>
<defs>
<font id="yinicon" horiz-adv-x="1024">
<font-face units-per-em="1024" ascent="960" descent="-64" />
<missing-glyph horiz-adv-x="1024" />
<glyph unicode="&#x20;" horiz-adv-x="512" d="" />
<glyph unicode="&#xe902;" glyph-name="arrow-share" horiz-adv-x="973" d="M958.554 571.253l-290.543-296.185c-10.466-10.651-22.834-15.976-37.142-15.997-6.589 0-13.218 1.412-19.81 4.214-22.022 9.543-33.025 26.084-33.025 49.643v134.622c-77.034 0-138.678-6.581-184.896-19.769-46.22-13.185-81.986-34.351-107.304-63.518-58.334-66.766-75.395-199.407-51.182-397.988 1.654-13.453-3.576-22.713-15.687-27.755-3.299-1.695-6.875-2.52-10.723-2.52-8.263 0-15.138 3.371-20.64 10.105-91.894 125.079-137.846 238.399-137.846 339.916 0 33.664 1.385 64.65 4.131 92.988 2.747 28.306 8.662 59.604 17.74 93.802 9.078 34.224 21.316 64.794 36.726 91.721 15.41 26.913 36.463 53.689 63.154 80.346 26.682 26.656 58.054 48.809 94.094 66.477 36.038 17.671 80.749 31.964 134.131 42.912 53.373 10.934 112.806 16.409 178.301 16.409v134.616c0 23.565 11.004 40.109 33.008 49.649 21.469 9.519 40.444 5.608 56.967-11.779l290.543-296.179c10.469-10.66 15.693-23.285 15.693-37.87s-5.221-27.207-15.69-37.861z" />
<glyph unicode="&#xe903;" glyph-name="arrow-left" d="M194.231 504.889l244.218 244.218c22.216 22.216 22.216 58.237 0 80.453s-58.237 22.216-80.453 0l-341.333-341.333c-22.216-22.216-22.216-58.237 0-80.453l341.333-341.333c22.216-22.216 58.237-22.216 80.453 0s22.216 58.237 0 80.453l-244.218 244.218h772.88c31.419 0 56.889 25.47 56.889 56.889s-25.47 56.889-56.889 56.889h-772.88z" />
<glyph unicode="&#xe904;" glyph-name="arrow-right" d="M829.769 504.889l-244.218 244.218c-22.216 22.216-22.216 58.237 0 80.453s58.237 22.216 80.453 0l341.333-341.333c22.216-22.216 22.216-58.237 0-80.453l-341.333-341.333c-22.216-22.216-58.237-22.216-80.453 0s-22.216 58.237 0 80.453l244.218 244.218h-772.88c-31.419 0-56.889 25.47-56.889 56.889s25.47 56.889 56.889 56.889h772.88z" />
<glyph unicode="&#xe905;" glyph-name="book" horiz-adv-x="1293" d="M197.438 911.476c-0.035 0-0.074 0-0.109 0-12.207 0-23.689-4.57-32.359-12.875-8.765-8.397-13.594-19.577-13.594-31.479v-665.084c0-24.389 20.742-44.279 46.243-44.342 107.506-0.246 287.621-21.764 411.876-146.634v696.029c0 8.267-2.199 16.034-6.349 22.461-101.983 157.719-297.96 181.682-405.709 181.924zM1139.321 202.038v665.088c0 11.902-4.828 23.083-13.594 31.479-8.67 8.305-20.16 12.875-32.354 12.875-0.039 0-0.078 0-0.113 0-107.745-0.246-303.723-24.21-405.709-181.928-4.15-6.427-6.345-14.194-6.345-22.461v-696.025c124.255 124.87 304.37 146.388 411.876 146.634 25.497 0.063 46.239 19.953 46.239 44.338zM1244.515 758.098h-33.489v-556.060c0-62.27-52.832-113.047-117.775-113.202-91.188-0.209-241.543-17.332-348.028-114.116 184.166 43.303 378.309 15.153 488.953-9.060 13.815-3.021 28.091 0.1 39.16 8.572 11.030 8.451 17.357 21.084 17.357 34.643v704.877c0.004 24.452-20.716 44.346-46.178 44.346zM79.667 202.038v556.060h-33.489c-25.458 0-46.178-19.894-46.178-44.346v-704.864c0-13.563 6.327-26.192 17.357-34.643 11.060-8.468 25.323-11.602 39.16-8.572 110.644 24.218 304.792 52.363 488.949 9.060-106.48 96.78-256.836 113.899-348.023 114.107-64.939 0.15-117.775 50.927-117.775 113.198z" />
<glyph unicode="&#xe906;" d="M1016.714 451.643c0-280.758-227.599-508.357-508.357-508.357s-508.357 227.599-508.357 508.357c0 280.758 227.599 508.357 508.357 508.357s508.357-227.599 508.357-508.357z" />
<glyph unicode="&#xe907;" d="M690.602 540.060c-146.831 0-147.021-146.278-147.021-147.030 0 0-10.059-146.459 147.021-146.459 0 0 131-7.449 131 101.929h-67.267c0 0 2.229-41.177-61.494-41.177 0 0-67.267-4.477-67.267 66.524h198.266c0 0 21.803 166.214-133.238 166.214zM624.821 425.091c0 0 8.201 58.885 67.276 58.885 59.256 0 58.324-58.885 58.324-58.885h-125.599zM456.758 462.726c0 0 58.323 4.286 58.323 72.858 0 68.381-47.702 101.929-108.263 101.929h-199.209v-382.922h199.191c0 0 121.684-3.734 121.684 113.102 0.009 0 5.229 95.033-71.725 95.033zM295.383 569.503h111.426c0 0 27.023 0 27.023-39.873s-15.84-45.654-33.919-45.654h-104.53v85.527zM401.227 322.601h-105.844v102.491h111.426c0 0 40.443 0.372 40.253-52.731 0-44.73-29.995-49.388-45.835-49.759zM608.238 614.966v-47.149h158.022v47.149h-158.022z" />
<glyph unicode="&#xe908;" d="M1016.714 451.643c0-280.758-227.599-508.357-508.357-508.357s-508.357 227.599-508.357 508.357c0 280.758 227.599 508.357 508.357 508.357s508.357-227.599 508.357-508.357z" />
<glyph unicode="&#xe909;" d="M636.158 431.743h-90.71v-332.32h-137.433v332.32h-65.364v116.79h65.364v75.577c0 54.045 25.672 138.675 138.657 138.675l101.802-0.426v-113.365h-73.864c-12.116 0-29.152-6.053-29.152-31.835v-68.735h102.708l-12.007-116.682z" />
<glyph unicode="&#xe90a;" glyph-name="date" d="M971.707 778.236c-14.651 13.897-32.034 20.847-52.104 20.847h-74.1v52.665c0 24.132-9.079 44.797-27.218 61.985-18.149 17.189-39.947 25.787-65.429 25.787h-37.045c-25.48 0-47.286-8.598-65.427-25.789-18.147-17.187-27.218-37.853-27.218-61.985v-52.665h-222.314v52.665c0 24.132-9.075 44.797-27.218 61.985-18.139 17.19-39.947 25.789-65.427 25.789h-37.051c-25.474 0-47.284-8.598-65.427-25.789-18.139-17.187-27.216-37.853-27.216-61.985v-52.665h-74.102c-20.076 0-37.442-6.95-52.11-20.847-14.667-13.895-22.002-30.358-22.002-49.373v-702.17c0-19.002 7.335-35.461 22.002-49.366 14.665-13.893 32.032-20.845 52.11-20.845h815.176c20.070 0 37.455 6.95 52.104 20.845 14.67 13.899 22.006 30.365 22.006 49.366v702.172c-0.002 19.022-7.331 35.476-21.992 49.373zM697.285 851.74c0 5.124 1.722 9.334 5.191 12.618 3.47 3.287 7.911 4.934 13.323 4.934h37.045c5.414 0 9.841-1.641 13.323-4.934 3.472-3.289 5.206-7.499 5.206-12.618v-157.983c0-5.122-1.734-9.324-5.206-12.618-3.484-3.284-7.909-4.934-13.323-4.934h-37.045c-5.412 0-9.853 1.643-13.323 4.934-3.47 3.295-5.191 7.495-5.191 12.618v157.983zM252.633 851.74c0 5.124 1.734 9.334 5.208 12.618 3.476 3.287 7.911 4.934 13.317 4.934h37.051c5.408 0 9.851-1.641 13.317-4.934 3.47-3.289 5.212-7.499 5.212-12.618v-157.983c0-5.122-1.734-9.33-5.212-12.618-3.474-3.284-7.909-4.934-13.317-4.934h-37.051c-5.406 0-9.847 1.643-13.317 4.934-3.466 3.295-5.208 7.495-5.208 12.618v157.983zM872.53 94.098h-721.057v454.113h721.057v-454.113z" />
<glyph unicode="&#xe90b;" glyph-name="look" d="M204.8 442.88c-28.277 0-51.2-22.923-51.2-51.2v-302.080c0-28.277 22.923-51.2 51.2-51.2h614.4c28.277 0 51.2 22.923 51.2 51.2v302.080c0 28.277-22.923 51.2-51.2 51.2h-614.4zM204.8 545.28h614.4c84.831 0 153.6-68.769 153.6-153.6v-302.080c0-84.831-68.769-153.6-153.6-153.6h-614.4c-84.831 0-153.6 68.769-153.6 153.6v302.080c0 84.831 68.769 153.6 153.6 153.6zM335.644 494.080c0-28.277-22.923-51.2-51.2-51.2s-51.2 22.923-51.2 51.2v184.32c0 155.382 124.66 281.6 278.756 281.6s278.756-126.218 278.756-281.6v-184.32c0-28.277-22.923-51.2-51.2-51.2s-51.2 22.923-51.2 51.2v184.32c0 99.111-79.1 179.2-176.356 179.2s-176.356-80.089-176.356-179.2v-184.32z" />
<glyph unicode="&#xe90e;" glyph-name="more" d="M503.979 960c-278.315 0-503.979-225.664-503.979-503.979s225.664-504.021 503.979-504.021c278.315 0 504.021 225.707 504.021 504.021s-225.707 503.979-504.021 503.979zM608.896 178.901c-25.941-10.24-46.592-18.005-62.080-23.381-15.445-5.376-33.408-8.064-53.845-8.064-31.403 0-55.851 7.68-73.259 22.997s-26.069 34.731-26.069 58.325c0 9.173 0.64 18.56 1.92 28.117 1.323 9.557 3.413 20.309 6.272 32.384l32.469 114.688c2.859 11.008 5.333 21.461 7.296 31.189 1.963 9.813 2.901 18.816 2.901 27.008 0 14.592-3.029 24.832-9.045 30.592-6.101 5.76-17.579 8.576-34.688 8.576-8.363 0-16.981-1.237-25.813-3.84-8.747-2.688-16.341-5.12-22.571-7.509l8.576 35.328c21.248 8.661 41.6 16.085 61.013 22.229 19.413 6.229 37.76 9.301 55.040 9.301 31.189 0 55.253-7.595 72.192-22.613 16.853-15.061 25.344-34.645 25.344-58.709 0-4.992-0.597-13.781-1.749-26.325-1.152-12.587-3.328-24.064-6.485-34.603l-32.299-114.347c-2.645-9.173-4.992-19.669-7.125-31.403-2.091-11.733-3.115-20.693-3.115-26.709 0-15.189 3.371-25.557 10.197-31.061 6.741-5.504 18.56-8.277 35.285-8.277 7.893 0 16.725 1.408 26.709 4.139 9.899 2.731 17.067 5.163 21.589 7.253l-8.661-35.285zM603.179 643.029c-15.061-13.995-33.195-20.992-54.4-20.992-21.163 0-39.424 6.997-54.613 20.992-15.104 13.995-22.741 31.019-22.741 50.901 0 19.84 7.68 36.907 22.741 51.029 15.189 14.165 33.451 21.205 54.613 21.205 21.205 0 39.381-7.040 54.4-21.205 15.061-14.123 22.613-31.189 22.613-51.029 0-19.925-7.552-36.907-22.613-50.901z" />
<glyph unicode="&#xe90f;" glyph-name="star" horiz-adv-x="1078" d="M538.947 151.579l-316.785-166.544 60.501 352.746-256.285 249.816 354.177 51.465 158.393 320.939 158.393-320.939 354.177-51.465-256.285-249.816 60.501-352.746z" />
<glyph unicode="&#xe910;" glyph-name="view" horiz-adv-x="1638" d="M818.949 960c-312.938 0-596.726-171.211-806.133-449.304-17.088-22.783-17.088-54.613 0-77.397 209.407-278.427 493.195-449.639 806.133-449.639s596.726 171.211 806.133 449.304c17.088 22.783 17.088 54.613 0 77.397-209.407 278.427-493.195 449.639-806.133 449.639zM841.397 128.068c-207.732-13.067-379.278 158.144-366.211 366.211 10.722 171.546 149.768 310.592 321.314 321.314 207.732 13.067 379.278-158.144 366.211-366.211-11.057-171.211-150.103-310.257-321.314-321.314zM831.011 286.882c-111.907-7.036-204.381 85.103-197.010 197.010 5.696 92.474 80.747 167.191 173.221 173.221 111.907 7.036 204.381-85.103 197.010-197.010-6.031-92.809-81.082-167.526-173.221-173.221z" />
</font></defs></svg>